sim.vcd
$date
	Sun May  8 18:01:42 2022
$end
$version
	Icarus Verilog
$end
$timescale
	10ps
$end
$scope module riscv_tb $end
$var reg 1 ! clk $end
$var reg 1 " rstn $end
$var integer 32 # i [31:0] $end
$scope module my_cpu $end
$var wire 1 ! clk $end
$var wire 1 " rstn $end
$var wire 1 $ stall $end
$var wire 1 % flush $end
$var wire 32 & WB_writedata [31:0] $end
$var wire 1 ' WB_reg_write $end
$var wire 5 ( WB_rd [4:0] $end
$var wire 32 ) WB_pc_plus_4 [31:0] $end
$var wire 1 * WB_mem_to_reg $end
$var wire 32 + WB_mem_readdata [31:0] $end
$var wire 2 , WB_jump [1:0] $end
$var wire 32 - WB_alu_result [31:0] $end
$var wire 32 . NEXT_PC [31:0] $end
$var wire 32 / MEM_target [31:0] $end
$var wire 1 0 MEM_taken $end
$var wire 1 1 MEM_reg_write $end
$var wire 5 2 MEM_rd [4:0] $end
$var wire 32 3 MEM_pc_plus_4 [31:0] $end
$var wire 32 4 MEM_mem_writedata [31:0] $end
$var wire 1 5 MEM_mem_write $end
$var wire 1 6 MEM_mem_to_reg $end
$var wire 32 7 MEM_mem_readdata [31:0] $end
$var wire 1 8 MEM_mem_read $end
$var wire 2 9 MEM_jump [1:0] $end
$var wire 3 : MEM_funct3 [2:0] $end
$var wire 32 ; MEM_alu_result [31:0] $end
$var wire 32 < IF_pc_plus_4 [31:0] $end
$var wire 32 = IF_inst [31:0] $end
$var wire 1 > ID_reg_write $end
$var wire 32 ? ID_readdata2 [31:0] $end
$var wire 32 @ ID_readdata1 [31:0] $end
$var wire 32 A ID_pc_plus_4 [31:0] $end
$var wire 1 B ID_mem_write $end
$var wire 1 C ID_mem_to_reg $end
$var wire 1 D ID_mem_read $end
$var wire 2 E ID_jump [1:0] $end
$var wire 32 F ID_inst [31:0] $end
$var wire 32 G ID_imm [31:0] $end
$var wire 1 H ID_branch $end
$var wire 1 I ID_alu_src $end
$var wire 2 J ID_alu_op [1:0] $end
$var wire 32 K ID_PC [31:0] $end
$var wire 32 L EX_target_base [31:0] $end
$var wire 32 M EX_target [31:0] $end
$var wire 1 N EX_taken $end
$var wire 5 O EX_rs2 [4:0] $end
$var wire 5 P EX_rs1 [4:0] $end
$var wire 1 Q EX_reg_write $end
$var wire 32 R EX_readdata2 [31:0] $end
$var wire 32 S EX_readdata1 [31:0] $end
$var wire 5 T EX_rd [4:0] $end
$var wire 32 U EX_pc_plus_4 [31:0] $end
$var wire 7 V EX_opcode [6:0] $end
$var wire 32 W EX_mem_writedata [31:0] $end
$var wire 1 X EX_mem_write $end
$var wire 1 Y EX_mem_to_reg $end
$var wire 1 Z EX_mem_read $end
$var wire 2 [ EX_jump [1:0] $end
$var wire 32 \ EX_imm [31:0] $end
$var wire 2 ] EX_fwd_b [1:0] $end
$var wire 2 ^ EX_fwd_a [1:0] $end
$var wire 7 _ EX_funct7 [6:0] $end
$var wire 3 ` EX_funct3 [2:0] $end
$var wire 1 a EX_check $end
$var wire 1 b EX_branch $end
$var wire 1 c EX_alu_src $end
$var wire 32 d EX_alu_result [31:0] $end
$var wire 2 e EX_alu_op [1:0] $end
$var wire 32 f EX_alu_in_b [31:0] $end
$var wire 32 g EX_alu_in_a [31:0] $end
$var wire 4 h EX_alu_func [3:0] $end
$var wire 32 i EX_PC [31:0] $end
$var reg 32 j PC [31:0] $end
$scope module m_alu $end
$var wire 32 k in_b [31:0] $end
$var wire 32 l in_a [31:0] $end
$var wire 4 m alu_func [3:0] $end
$var reg 1 a check $end
$var reg 32 n result [31:0] $end
$upscope $end
$scope module m_alu_control $end
$var wire 7 o funct7 [6:0] $end
$var wire 3 p funct3 [2:0] $end
$var wire 4 q funct [3:0] $end
$var wire 2 r alu_op [1:0] $end
$var reg 4 s alu_func [3:0] $end
$upscope $end
$scope module m_branch_control $end
$var wire 1 a check $end
$var wire 1 b branch $end
$var reg 1 N taken $end
$upscope $end
$scope module m_branch_target_adder $end
$var wire 32 t in_b [31:0] $end
$var wire 32 u in_a [31:0] $end
$var reg 32 v result [31:0] $end
$upscope $end
$scope module m_control $end
$var wire 7 w opcode [6:0] $end
$var wire 1 > reg_write $end
$var wire 1 B mem_write $end
$var wire 1 C mem_to_reg $end
$var wire 1 D mem_read $end
$var wire 2 x jump [1:0] $end
$var wire 1 H branch $end
$var wire 1 I alu_src $end
$var wire 2 y alu_op [1:0] $end
$var reg 10 z controls [9:0] $end
$upscope $end
$scope module m_data_memory $end
$var wire 1 ! clk $end
$var wire 2 { maskmode [1:0] $end
$var wire 1 | sext $end
$var wire 32 } write_data [31:0] $end
$var wire 1 5 mem_write $end
$var wire 1 8 mem_read $end
$var wire 8 ~ address_internal [7:0] $end
$var wire 32 !" address [31:0] $end
$var reg 32 "" read_data [31:0] $end
$upscope $end
$scope module m_exmem_reg $end
$var wire 1 ! clk $end
$var wire 32 #" ex_alu_result [31:0] $end
$var wire 32 $" ex_pc_target [31:0] $end
$var wire 1 N ex_taken $end
$var wire 1 % flush $end
$var wire 32 %" ex_writedata [31:0] $end
$var wire 1 Q ex_regwrite $end
$var wire 5 &" ex_rd [4:0] $end
$var wire 32 '" ex_pc_plus_4 [31:0] $end
$var wire 1 X ex_memwrite $end
$var wire 1 Y ex_memtoreg $end
$var wire 1 Z ex_memread $end
$var wire 2 (" ex_jump [1:0] $end
$var wire 3 )" ex_funct3 [2:0] $end
$var reg 32 *" mem_alu_result [31:0] $end
$var reg 3 +" mem_funct3 [2:0] $end
$var reg 2 ," mem_jump [1:0] $end
$var reg 1 8 mem_memread $end
$var reg 1 6 mem_memtoreg $end
$var reg 1 5 mem_memwrite $end
$var reg 32 -" mem_pc_plus_4 [31:0] $end
$var reg 32 ." mem_pc_target [31:0] $end
$var reg 5 /" mem_rd [4:0] $end
$var reg 1 1 mem_regwrite $end
$var reg 1 0 mem_taken $end
$var reg 32 0" mem_writedata [31:0] $end
$upscope $end
$scope module m_forwarding $end
$var wire 5 1" MEM_rd [4:0] $end
$var wire 1 1 MEM_reg_write $end
$var wire 1 ' WB_reg_write $end
$var wire 5 2" WB_rd [4:0] $end
$var wire 5 3" EX_rs2 [4:0] $end
$var wire 5 4" EX_rs1 [4:0] $end
$var reg 2 5" fwd_a [1:0] $end
$var reg 2 6" fwd_b [1:0] $end
$upscope $end
$scope module m_hazard $end
$var wire 7 7" ID_opcode [6:0] $end
$var wire 5 8" ID_rs1 [4:0] $end
$var wire 5 9" ID_rs2 [4:0] $end
$var wire 1 0 taken $end
$var wire 1 Q EX_reg_write $end
$var wire 5 :" EX_rd [4:0] $end
$var wire 7 ;" EX_opcode [6:0] $end
$var reg 1 % flush $end
$var reg 1 <" is_EX_load $end
$var reg 1 $ stall $end
$var reg 1 =" use_rs1 $end
$var reg 1 >" use_rs2 $end
$upscope $end
$scope module m_idex_reg $end
$var wire 1 ! clk $end
$var wire 1 % flush $end
$var wire 2 ?" id_aluop [1:0] $end
$var wire 1 I id_alusrc $end
$var wire 1 H id_branch $end
$var wire 3 @" id_funct3 [2:0] $end
$var wire 7 A" id_funct7 [6:0] $end
$var wire 2 B" id_jump [1:0] $end
$var wire 1 D id_memread $end
$var wire 1 C id_memtoreg $end
$var wire 1 B id_memwrite $end
$var wire 7 C" id_opcode [6:0] $end
$var wire 5 D" id_rd [4:0] $end
$var wire 1 > id_regwrite $end
$var wire 5 E" id_rs1 [4:0] $end
$var wire 5 F" id_rs2 [4:0] $end
$var wire 1 $ stall $end
$var wire 32 G" id_sextimm [31:0] $end
$var wire 32 H" id_readdata2 [31:0] $end
$var wire 32 I" id_readdata1 [31:0] $end
$var wire 32 J" id_pc_plus_4 [31:0] $end
$var wire 32 K" id_PC [31:0] $end
$var reg 32 L" ex_PC [31:0] $end
$var reg 2 M" ex_aluop [1:0] $end
$var reg 1 c ex_alusrc $end
$var reg 1 b ex_branch $end
$var reg 3 N" ex_funct3 [2:0] $end
$var reg 7 O" ex_funct7 [6:0] $end
$var reg 2 P" ex_jump [1:0] $end
$var reg 1 Z ex_memread $end
$var reg 1 Y ex_memtoreg $end
$var reg 1 X ex_memwrite $end
$var reg 7 Q" ex_opcode [6:0] $end
$var reg 32 R" ex_pc_plus_4 [31:0] $end
$var reg 5 S" ex_rd [4:0] $end
$var reg 32 T" ex_readdata1 [31:0] $end
$var reg 32 U" ex_readdata2 [31:0] $end
$var reg 1 Q ex_regwrite $end
$var reg 5 V" ex_rs1 [4:0] $end
$var reg 5 W" ex_rs2 [4:0] $end
$var reg 32 X" ex_sextimm [31:0] $end
$upscope $end
$scope module m_ifid_reg $end
$var wire 1 ! clk $end
$var wire 1 % flush $end
$var wire 32 Y" if_PC [31:0] $end
$var wire 1 $ stall $end
$var wire 32 Z" if_pc_plus_4 [31:0] $end
$var wire 32 [" if_instruction [31:0] $end
$var reg 32 \" id_PC [31:0] $end
$var reg 32 ]" id_instruction [31:0] $end
$var reg 32 ^" id_pc_plus_4 [31:0] $end
$upscope $end
$scope module m_immediate_generator $end
$var wire 32 _" instruction [31:0] $end
$var wire 7 `" opcode [6:0] $end
$var reg 32 a" sextimm [31:0] $end
$upscope $end
$scope module m_instruction_memory $end
$var wire 32 b" address [31:0] $end
$var reg 32 c" instruction [31:0] $end
$upscope $end
$scope module m_memwb_reg $end
$var wire 1 ! clk $end
$var wire 32 d" mem_alu_result [31:0] $end
$var wire 2 e" mem_jump [1:0] $end
$var wire 1 6 mem_memtoreg $end
$var wire 32 f" mem_pc_plus_4 [31:0] $end
$var wire 5 g" mem_rd [4:0] $end
$var wire 32 h" mem_readdata [31:0] $end
$var wire 1 1 mem_regwrite $end
$var reg 32 i" wb_alu_result [31:0] $end
$var reg 2 j" wb_jump [1:0] $end
$var reg 1 * wb_memtoreg $end
$var reg 32 k" wb_pc_plus_4 [31:0] $end
$var reg 5 l" wb_rd [4:0] $end
$var reg 32 m" wb_readdata [31:0] $end
$var reg 1 ' wb_regwrite $end
$upscope $end
$scope module m_pc_plus_4_adder $end
$var wire 32 n" in_a [31:0] $end
$var wire 32 o" in_b [31:0] $end
$var reg 32 p" result [31:0] $end
$upscope $end
$scope module m_register_file $end
$var wire 1 ! clk $end
$var wire 32 q" readdata1 [31:0] $end
$var wire 32 r" readdata2 [31:0] $end
$var wire 5 s" readreg1 [4:0] $end
$var wire 5 t" readreg2 [4:0] $end
$var wire 1 ' wen $end
$var wire 5 u" writereg [4:0] $end
$var wire 32 v" writedata [31:0] $end
$upscope $end
$scope module mem_writedata_select $end
$var wire 32 w" in1 [31:0] $end
$var wire 32 x" in2 [31:0] $end
$var wire 2 y" select [1:0] $end
$var wire 32 z" in3 [31:0] $end
$var reg 32 {" out [31:0] $end
$upscope $end
$scope module mux_PC_source $end
$var wire 32 |" in1 [31:0] $end
$var wire 32 }" in2 [31:0] $end
$var wire 32 ~" in3 [31:0] $end
$var wire 32 !# in4 [31:0] $end
$var wire 2 "# select [1:0] $end
$var reg 32 ## out [31:0] $end
$upscope $end
$scope module mux_WriteBack $end
$var wire 32 $# in1 [31:0] $end
$var wire 32 %# in2 [31:0] $end
$var wire 32 &# in3 [31:0] $end
$var wire 2 '# select [1:0] $end
$var reg 32 (# out [31:0] $end
$upscope $end
$scope module mux_alu_in_1 $end
$var wire 32 )# in1 [31:0] $end
$var wire 32 *# in2 [31:0] $end
$var wire 32 +# in3 [31:0] $end
$var wire 2 ,# select [1:0] $end
$var reg 32 -# out [31:0] $end
$upscope $end
$scope module mux_alu_in_2 $end
$var wire 32 .# in1 [31:0] $end
$var wire 32 /# in2 [31:0] $end
$var wire 32 0# in3 [31:0] $end
$var wire 32 1# in4 [31:0] $end
$var wire 2 2# select [1:0] $end
$var reg 32 3# out [31:0] $end
$upscope $end
$scope module mux_target_base_selector $end
$var wire 32 4# in1 [31:0] $end
$var wire 32 5# in2 [31:0] $end
$var wire 1 6# select $end
$var reg 32 7# out [31:0] $end
$upscope $end
$upscope $end
$upscope $end
$enddefinitions $end
#0
$dumpvars
b0 7#
x6#
bx0 5#
bx 4#
bx 3#
bx 2#
bx 1#
bx 0#
bx /#
bx .#
bx -#
bx ,#
bx +#
bx *#
bx )#
bx (#
bx '#
bx &#
bx %#
bx $#
bx ##
bx "#
bx !#
bx ~"
bx }"
bx |"
bx {"
bx z"
bx y"
bx x"
bx w"
bx v"
bx u"
bx t"
bx s"
bx r"
bx q"
bx p"
b100 o"
bx n"
bx m"
bx l"
bx k"
bx j"
bx i"
b0 h"
bx g"
bx f"
bx e"
bx d"
bx c"
bx b"
bx a"
bx `"
bx _"
bx ^"
bx ]"
bx \"
bx ["
bx Z"
bx Y"
bx X"
bx W"
bx V"
bx U"
bx T"
bx S"
bx R"
bx Q"
bx P"
bx O"
bx N"
bx M"
bx L"
bx K"
bx J"
bx I"
bx H"
bx G"
bx F"
bx E"
bx D"
bx C"
bx B"
bx A"
bx @"
bx ?"
x>"
x="
x<"
bx ;"
bx :"
bx 9"
bx 8"
bx 7"
bx 6"
bx 5"
bx 4"
bx 3"
bx 2"
bx 1"
bx 0"
bx /"
bx ."
bx -"
bx ,"
bx +"
bx *"
bx )"
bx ("
bx '"
bx &"
bx %"
bx $"
bx #"
b0 ""
bx !"
bx ~
bx }
x|
bx {
bx z
bx y
bx x
bx w
bx v
b0 u
bx t
bx s
bx r
bx q
bx p
bx o
bx n
bx m
bx l
bx k
bx j
bx i
bx h
bx g
bx f
bx e
bx d
xc
xb
xa
bx `
bx _
bx ^
bx ]
bx \
bx [
xZ
xY
xX
bx W
bx V
bx U
bx T
bx S
bx R
xQ
bx P
bx O
xN
bx M
b0 L
bx K
bx J
xI
xH
bx G
bx F
bx E
xD
xC
xB
bx A
bx @
bx ?
x>
bx =
bx <
bx ;
bx :
bx 9
x8
b0 7
x6
x5
bx 4
bx 3
bx 2
x1
x0
bx /
bx .
bx -
bx ,
bx +
x*
bx )
bx (
x'
bx &
x%
x$
bx #
0"
0!
$end
#500
0N
b0 ]
b0 6"
b0 y"
b0 ^
b0 5"
b0 ,#
0$
0<"
0="
0>"
0%
b0 =
b0 ["
b0 c"
b100 <
b100 Z"
b100 p"
b100 |"
b100 .
b100 ##
b10011 V
b10011 ;"
b10011 Q"
0Q
0Y
0X
0Z
0b
01
06
05
08
b0 "#
00
b0 +
b0 m"
b0 %#
b0 j
b0 Y"
b0 b"
b0 n"
b0 ~"
b0 !#
1!
#1000
0!
#1500
b0 E
b0 x
b0 B"
0H
0D
0C
b0 J
b0 y
b0 ?"
0B
0I
0>
b0 z
x<"
xN
b0 G
b0 G"
b0 a"
b0 `"
b0 C"
b0 D"
b0 F"
b0 E"
b0 @"
b0 A"
b0 ?
b0 H"
b0 r"
b0 t"
b0 @
b0 I"
b0 q"
b0 s"
b0 w
b0 7"
b0 9"
b0 8"
0'
bx0 '#
0*
bx V
bx ;"
bx Q"
xQ
xY
xX
xZ
xb
b0 F
b0 ]"
b0 _"
b100 A
b100 J"
b100 ^"
b0 K
b0 K"
b0 \"
1!
#2000
0!
#2500
0a
b0 d
b0 n
b0 #"
b0 W
b0 %"
b0 {"
b0 g
b0 l
b0 -#
b0 5#
b0 M
b0 v
b0 $"
b0 f
b0 k
b0 3#
06#
b0 2#
b0 h
b0 m
b0 s
0N
0<"
b0 .
b0 ##
b0 V
b0 ;"
b0 Q"
b0 T
b0 &"
b0 :"
b0 S"
b0 O
b0 3"
b0 W"
b0 P
b0 4"
b0 V"
b0 R
b0 U"
b0 w"
b0 .#
b0 S
b0 T"
b0 )#
b0 q
b0 `
b0 p
b0 )"
b0 N"
b0 _
b0 o
b0 O"
b0 \
b0 t
b0 X"
b0 1#
0Q
0Y
0X
0Z
b0 [
b0 ("
b0 P"
0c
b0 e
b0 r
b0 M"
0b
b100 U
b100 '"
b100 R"
b0 i
b0 L"
b0 4#
x1
x6
x5
x8
b0x "#
x0
1!
#3000
0!
#3500
0|
b0 {
b0 ~
b100 .
b100 ##
x'
bx '#
x*
b0 2
b0 /"
b0 1"
b0 g"
b0 :
b0 +"
b0 4
b0 }
b0 0"
b0 ;
b0 !"
b0 *"
b0 d"
b0 x"
b0 *#
b0 /#
01
06
b0 9
b0 ,"
b0 e"
05
08
b0 "#
00
b0 /
b0 ."
b0 }"
b100 3
b100 -"
b100 f"
1!
#4000
0!
#4500
b0 &
b0 v"
b0 z"
b0 (#
b0 +#
b0 0#
b0 (
b0 2"
b0 l"
b0 u"
b0 -
b0 i"
b0 $#
0'
b0 '#
0*
b0 ,
b0 j"
b100 )
b100 k"
b100 &#
1!
#5000
0!
#5500
1!
#6000
0!
1"
#6500
b1000 .
b1000 ##
b110100000000000000001101111 =
b110100000000000000001101111 ["
b110100000000000000001101111 c"
b1000 <
b1000 Z"
b1000 p"
b1000 |"
b100 j
b100 Y"
b100 b"
b100 n"
b100 ~"
b100 !#
1!
#7000
0!
#7500
b10 E
b10 x
b10 B"
1H
bx J
bx y
bx ?"
xI
1>
b1100 .
b1100 ##
b10100xx0x1 z
b11111101000000010000000100010011 =
b11111101000000010000000100010011 ["
b11111101000000010000000100010011 c"
b1100 <
b1100 Z"
b1100 p"
b1100 |"
b1101000 G
b1101000 G"
b1101000 a"
b1101111 `"
b1101111 C"
b1000 F"
b11 A"
b1000 t"
b1101111 w
b1101111 7"
b1000 9"
b1000 j
b1000 Y"
b1000 b"
b1000 n"
b1000 ~"
b1000 !#
b110100000000000000001101111 F
b110100000000000000001101111 ]"
b110100000000000000001101111 _"
b1000 A
b1000 J"
b1000 ^"
b100 K
b100 K"
b100 \"
1!
#8000
0!
#8500
b0 E
b0 x
b0 B"
0H
b11 J
b11 y
b11 ?"
1I
1N
b11011 z
1="
1a
b10000 .
b10000 ##
b11111111111111111111111111010000 G
b11111111111111111111111111010000 G"
b11111111111111111111111111010000 a"
b10011 `"
b10011 C"
b10 D"
b10000 F"
b10 E"
b1111110 A"
b10000 t"
b1100100 @
b1100100 I"
b1100100 q"
b10 s"
b10011 w
b10011 7"
b10000 9"
b10 8"
b1101100 M
b1101100 v
b1101100 $"
bx 2#
b1111 h
b1111 m
b1111 s
b100 L
b100 u
b100 7#
b10100000010010011000100011 =
b10100000010010011000100011 ["
b10100000010010011000100011 c"
b10000 <
b10000 Z"
b10000 p"
b10000 |"
b11111101000000010000000100010011 F
b11111101000000010000000100010011 ]"
b11111101000000010000000100010011 _"
b1100 A
b1100 J"
b1100 ^"
b1000 K
b1000 K"
b1000 \"
b1101111 V
b1101111 ;"
b1101111 Q"
b1000 O
b1000 3"
b1000 W"
b11 _
b11 o
b11 O"
b1101000 \
b1101000 t
b1101000 X"
b1101000 1#
1Q
b10 [
b10 ("
b10 P"
xc
bx e
bx r
bx M"
1b
b1000 U
b1000 '"
b1000 R"
b100 i
b100 L"
b100 4#
b1100 j
b1100 Y"
b1100 b"
b1100 n"
b1100 ~"
b1100 !#
1!
#9000
0!
#9500
xC
b0 J
b0 y
b0 ?"
1B
0>
b110100 d
b110100 n
b110100 #"
b0x00110 z
b11000000010000010000010011 =
b11000000010000010000010011 ["
b11000000010000010000010011 c"
b10100 <
b10100 Z"
b10100 p"
b10100 |"
b1101100 .
b1101100 ##
1>"
1%
b1100100 g
b1100100 l
b1100100 -#
b1100100 5#
b1000 q
b11111111111111111111111111011000 M
b11111111111111111111111111011000 v
b11111111111111111111111111011000 $"
b11111111111111111111111111010000 f
b11111111111111111111111111010000 k
b11111111111111111111111111010000 3#
b11 2#
b0 h
b0 m
b0 s
0N
b1000 L
b1000 u
b1000 7#
b101100 G
b101100 G"
b101100 a"
b100011 `"
b100011 C"
b1100 D"
b1000 F"
b10 @"
b1 A"
b1000 t"
b100011 w
b100011 7"
b1000 9"
b10000 j
b10000 Y"
b10000 b"
b10000 n"
b10000 ~"
b10000 !#
11
b10 9
b10 ,"
b10 e"
b1 "#
10
b1101100 /
b1101100 ."
b1101100 }"
b1000 3
b1000 -"
b1000 f"
b10011 V
b10011 ;"
b10011 Q"
b10 T
b10 &"
b10 :"
b10 S"
b10000 O
b10000 3"
b10000 W"
b10 P
b10 4"
b10 V"
b1100100 S
b1100100 T"
b1100100 )#
b1111110 _
b1111110 o
b1111110 O"
b11111111111111111111111111010000 \
b11111111111111111111111111010000 t
b11111111111111111111111111010000 X"
b11111111111111111111111111010000 1#
b0 [
b0 ("
b0 P"
1c
b11 e
b11 r
b11 M"
0b
b1100 U
b1100 '"
b1100 R"
b1000 i
b1000 L"
b1000 4#
b10100000010010011000100011 F
b10100000010010011000100011 ]"
b10100000010010011000100011 _"
b10000 A
b10000 J"
b10000 ^"
b1100 K
b1100 K"
b1100 \"
1!
#10000
0!
#10500
0C
b11 J
b11 y
b11 ?"
0B
1>
b11011 z
0="
0>"
b1000 &
b1000 v"
b1000 z"
b1000 (#
b1000 +#
b1000 0#
b0 G
b0 G"
b0 a"
b10011 `"
b10011 C"
b0 D"
b0 F"
b0 E"
b0 @"
b0 A"
b0 t"
b0 @
b0 I"
b0 q"
b0 s"
b10011 w
b10011 7"
b0 9"
b0 8"
0%
b10 '#
b11111110000000010000000100010011 =
b11111110000000010000000100010011 ["
b11111110000000010000000100010011 c"
b1110000 <
b1110000 Z"
b1110000 p"
b1110000 |"
b1110000 .
b1110000 ##
b10011 F
b10011 ]"
b10011 _"
0Q
01
b0 "#
00
1'
b10 ,
b10 j"
b1000 )
b1000 k"
b1000 &#
b1101100 j
b1101100 Y"
b1101100 b"
b1101100 n"
b1101100 ~"
b1101100 !#
1!
#11000
b0 @
b0 I"
b0 q"
b0 ?
b0 H"
b0 r"
0!
#11500
b1110100 .
b1110100 ##
b0 d
b0 n
b0 #"
0a
b100010010111000100011 =
b100010010111000100011 ["
b100010010111000100011 c"
b1110100 <
b1110100 Z"
b1110100 p"
b1110100 |"
b1101 ~
1="
b0 g
b0 l
b0 -#
b0 5#
b0 q
b1100 M
b1100 v
b1100 $"
b0 f
b0 k
b0 3#
b1100 L
b1100 u
b1100 7#
b11111111111111111111111111100000 G
b11111111111111111111111111100000 G"
b11111111111111111111111111100000 a"
b10 D"
b10 E"
b1111111 A"
b1100100 @
b1100100 I"
b1100100 q"
b10 s"
b10 8"
b1110000 j
b1110000 Y"
b1110000 b"
b1110000 n"
b1110000 ~"
b1110000 !#
0'
b10 2
b10 /"
b10 1"
b10 g"
b110100 ;
b110100 !"
b110100 *"
b110100 d"
b110100 x"
b110100 *#
b110100 /#
b0 9
b0 ,"
b0 e"
b11111111111111111111111111011000 /
b11111111111111111111111111011000 ."
b11111111111111111111111111011000 }"
b1100 3
b1100 -"
b1100 f"
b0 T
b0 &"
b0 :"
b0 S"
b0 O
b0 3"
b0 W"
b0 P
b0 4"
b0 V"
b0 S
b0 T"
b0 )#
b0 _
b0 o
b0 O"
b0 \
b0 t
b0 X"
b0 1#
1Q
b10000 U
b10000 '"
b10000 R"
b1100 i
b1100 L"
b1100 4#
b11111110000000010000000100010011 F
b11111110000000010000000100010011 ]"
b11111110000000010000000100010011 _"
b1110000 A
b1110000 J"
b1110000 ^"
b1101100 K
b1101100 K"
b1101100 \"
1!
#12000
0!
#12500
xC
b0 J
b0 y
b0 ?"
1B
0>
b0x00110 z
1>"
1a
b1000100 d
b1000100 n
b1000100 #"
b1111000 .
b1111000 ##
b11100 G
b11100 G"
b11100 a"
b100011 `"
b100011 C"
b11100 D"
b1 F"
b10 @"
b0 A"
b1 t"
b100011 w
b100011 7"
b1 9"
b1100100 5#
b1000 q
b1001100 M
b1001100 v
b1001100 $"
b1101100 L
b1101100 u
b1101100 7#
b0 ~
b1100100 g
b1100100 l
b1100100 -#
b11111111111111111111111111100000 f
b11111111111111111111111111100000 k
b11111111111111111111111111100000 3#
b0 '#
b110100 &
b110100 v"
b110100 z"
b110100 (#
b110100 +#
b110100 0#
b100000010010110000100011 =
b100000010010110000100011 ["
b100000010010110000100011 c"
b1111000 <
b1111000 Z"
b1111000 p"
b1111000 |"
b100010010111000100011 F
b100010010111000100011 ]"
b100010010111000100011 _"
b1110100 A
b1110100 J"
b1110100 ^"
b1110000 K
b1110000 K"
b1110000 \"
b10 T
b10 &"
b10 :"
b10 S"
b10 P
b10 4"
b10 V"
b1100100 S
b1100100 T"
b1100100 )#
b1111111 _
b1111111 o
b1111111 O"
b11111111111111111111111111100000 \
b11111111111111111111111111100000 t
b11111111111111111111111111100000 X"
b11111111111111111111111111100000 1#
b1110000 U
b1110000 '"
b1110000 R"
b1101100 i
b1101100 L"
b1101100 4#
b0 2
b0 /"
b0 1"
b0 g"
b0 ;
b0 !"
b0 *"
b0 d"
b0 x"
b0 *#
b0 /#
11
b1100 /
b1100 ."
b1100 }"
b10000 3
b10000 -"
b10000 f"
b10 (
b10 2"
b10 l"
b10 u"
b110100 -
b110100 i"
b110100 $#
b0 ,
b0 j"
b1100 )
b1100 k"
b1100 &#
b1110100 j
b1110100 Y"
b1110100 b"
b1110100 n"
b1110100 ~"
b1110100 !#
1!
#13000
0!
#13500
b1111100 .
b1111100 ##
b1100000 d
b1100000 n
b1100000 #"
b10000000010000010000010011 =
b10000000010000010000010011 ["
b10000000010000010000010011 c"
b1111100 <
b1111100 Z"
b1111100 p"
b1111100 |"
b0 &
b0 v"
b0 z"
b0 (#
b0 +#
b0 0#
b10001 ~
b1000100 g
b1000100 l
b1000100 -#
b1 ^
b1 5"
b1 ,#
b10001100 M
b10001100 v
b10001100 $"
b11100 f
b11100 k
b11100 3#
b1110000 L
b1110000 u
b1110000 7#
b11000 G
b11000 G"
b11000 a"
b11000 D"
b1000 F"
b1000 t"
b1000 9"
b1111000 j
b1111000 Y"
b1111000 b"
b1111000 n"
b1111000 ~"
b1111000 !#
b0 (
b0 2"
b0 l"
b0 u"
b0 -
b0 i"
b0 $#
1'
b10000 )
b10000 k"
b10000 &#
b10 2
b10 /"
b10 1"
b10 g"
b1000100 ;
b1000100 !"
b1000100 *"
b1000100 d"
b1000100 x"
b1000100 *#
b1000100 /#
b1001100 /
b1001100 ."
b1001100 }"
b1110000 3
b1110000 -"
b1110000 f"
b100011 V
b100011 ;"
b100011 Q"
b11100 T
b11100 &"
b11100 :"
b11100 S"
b1 O
b1 3"
b1 W"
b10 q
b10 `
b10 p
b10 )"
b10 N"
b0 _
b0 o
b0 O"
b11100 \
b11100 t
b11100 X"
b11100 1#
0Q
xY
1X
b0 e
b0 r
b0 M"
b1110100 U
b1110100 '"
b1110100 R"
b1110000 i
b1110000 L"
b1110000 4#
b100000010010110000100011 F
b100000010010110000100011 ]"
b100000010010110000100011 _"
b1111000 A
b1111000 J"
b1111000 ^"
b1110100 K
b1110100 K"
b1110100 \"
1!
#14000
0!
#14500
0C
b11 J
b11 y
b11 ?"
0B
1>
b11011 z
0>"
b1011100 d
b1011100 n
b1011100 #"
b10000000 .
b10000000 ##
b100000 G
b100000 G"
b100000 a"
b10011 `"
b10011 C"
b1000 D"
b0 F"
b0 @"
b1 A"
b0 t"
b10011 w
b10011 7"
b0 9"
b1110100 L
b1110100 u
b1110100 7#
b10 {
b11000 ~
b11000 f
b11000 k
b11000 3#
b10 ^
b10 5"
b10 ,#
b1000100 &
b1000100 v"
b1000100 z"
b1000100 (#
b1000100 +#
b1000100 0#
b101100000000011110010011 =
b101100000000011110010011 ["
b101100000000011110010011 c"
b10000000 <
b10000000 Z"
b10000000 p"
b10000000 |"
b10000000010000010000010011 F
b10000000010000010000010011 ]"
b10000000010000010000010011 _"
b1111100 A
b1111100 J"
b1111100 ^"
b1111000 K
b1111000 K"
b1111000 \"
b11000 T
b11000 &"
b11000 :"
b11000 S"
b1000 O
b1000 3"
b1000 W"
b11000 \
b11000 t
b11000 X"
b11000 1#
b1111000 U
b1111000 '"
b1111000 R"
b1110100 i
b1110100 L"
b1110100 4#
b11100 2
b11100 /"
b11100 1"
b11100 g"
b10 :
b10 +"
b1100000 ;
b1100000 !"
b1100000 *"
b1100000 d"
b1100000 x"
b1100000 *#
b1100000 /#
01
x6
15
b10001100 /
b10001100 ."
b10001100 }"
b1110100 3
b1110100 -"
b1110100 f"
b10 (
b10 2"
b10 l"
b10 u"
b1000100 -
b1000100 i"
b1000100 $#
b1110000 )
b1110000 k"
b1110000 &#
b1111100 j
b1111100 Y"
b1111100 b"
b1111100 n"
b1111100 ~"
b1111100 !#
1!
#15000
b1000100 @
b1000100 I"
b1000100 q"
0!
